Grobbelaar,Pieter,Aug 15 1933 12:00:00:000AM,84,,,SourceDeal,,28244,22655,IA,Mar 10 2016 12:00:00:000AM,204143.76,33990.639999999999,33343.774899999997,101.94,124,,101.92,UT,Ashburton SA Income Fund B1,XFER,14681003,32537
Grobbelaar,Cornelia Hendrina Aletta,Mar 14 1933 12:00:00:000AM,84,,,DestinationDeal,,32537,22551,IA,Mar 10 2016 12:00:00:000AM,204143.76,33990.639999999999,33343.774899999997,101.94,124,,101.92,UT,Ashburton SA Income Fund B1,XFER,14681002,32537
Grobbelaar,Pieter,Aug 15 1933 12:00:00:000AM,84,,,SourceDeal,,28244,22655,IA,Mar 10 2016 12:00:00:000AM,204143.76,18632.669999999998,2660.5936999999999,700.32000000000005,642,,707.12,UT,Ashburton Equity Fund A1,XFER,14681001,32537
Grobbelaar,Pieter,Aug 15 1933 12:00:00:000AM,84,,,SourceDeal,,28244,22655,IA,Mar 10 2016 12:00:00:000AM,204143.76,14011.809999999999,6443.6913000000004,217.44999999999999,657,,225.10,UT,Ashburton Global Flexible Fund A1,XFER,14680995,32537
Grobbelaar,Cornelia Hendrina Aletta,Mar 14 1933 12:00:00:000AM,84,,,DestinationDeal,,32537,22551,IA,Mar 10 2016 12:00:00:000AM,204143.76,14011.809999999999,6443.6913000000004,217.44999999999999,657,,225.10,UT,Ashburton Global Flexible Fund A1,XFER,14680994,32537
Grobbelaar,Pieter,Aug 15 1933 12:00:00:000AM,84,,,SourceDeal,,28244,22655,IA,Mar 10 2016 12:00:00:000AM,204143.76,9300.25,444.10199999999998,2094.1700000000001,673,,2138.89,UT,Ashburton Multi Manager Property Fund A1,XFER,14680999,32537
Grobbelaar,Cornelia Hendrina Aletta,Mar 14 1933 12:00:00:000AM,84,,,DestinationDeal,,32537,22551,IA,Mar 10 2016 12:00:00:000AM,204143.76,9300.25,444.10199999999998,2094.1700000000001,673,,2138.89,UT,Ashburton Multi Manager Property Fund A1,XFER,14680998,32537
Grobbelaar,Pieter,Aug 15 1933 12:00:00:000AM,84,,,SourceDeal,,28244,22655,IA,Mar 10 2016 12:00:00:000AM,204143.76,22540.669999999998,2251.6803,1001.0599999999999,694,,1046.01,UT,Ashburton Multi Manager Bond Fund A1,XFER,14680997,32537
Grobbelaar,Cornelia Hendrina Aletta,Mar 14 1933 12:00:00:000AM,84,,,DestinationDeal,,32537,22551,IA,Mar 10 2016 12:00:00:000AM,204143.76,22540.669999999998,2251.6803,1001.0599999999999,694,,1046.01,UT,Ashburton Multi Manager Bond Fund A1,XFER,14680996,32537
Grobbelaar,Pieter,Aug 15 1933 12:00:00:000AM,84,,,SourceDeal,,28244,22655,IA,Mar 10 2016 12:00:00:000AM,204143.76,1936.2663,0.0,0.0,8089,,,FEED,Ashburton Money Market Fund - Fee Account,XFER,14681005,32537
Grobbelaar,Cornelia Hendrina Aletta,Mar 14 1933 12:00:00:000AM,84,,,DestinationDeal,,32537,22551,IA,Mar 10 2016 12:00:00:000AM,204143.76,1936.2663,0.0,0.0,8089,,,FEED,Ashburton Money Market Fund - Fee Account,XFER,14681004,32537
Grobbelaar,Pieter,Aug 15 1933 12:00:00:000AM,84,,,SourceDeal,,28245,22655,IA,Mar 10 2016 12:00:00:000AM,204143.76,101775.96000000001,99839.082299999995,101.94,124,,101.92,UT,Ashburton SA Income Fund B1,XFER,14681007,32538
Grobbelaar,Cornelia Hendrina Aletta,Mar 14 1933 12:00:00:000AM,84,,,DestinationDeal,,32538,22551,IA,Mar 10 2016 12:00:00:000AM,204143.76,101775.96000000001,99839.082299999995,101.94,124,,101.92,UT,Ashburton SA Income Fund B1,XFER,14681006,32538
Grobbelaar,Pieter,Aug 15 1933 12:00:00:000AM,84,,,SourceDeal,,28245,22655,IA,Mar 10 2016 12:00:00:000AM,204143.76,1955.4978000000001,0.0,0.0,8089,,,FEED,Ashburton Money Market Fund - Fee Account,XFER,14681009,32538
Grobbelaar,Cornelia Hendrina Aletta,Mar 14 1933 12:00:00:000AM,84,,,DestinationDeal,,32538,22551,IA,Mar 10 2016 12:00:00:000AM,204143.76,1955.4978000000001,0.0,0.0,8089,,,FEED,Ashburton Money Market Fund - Fee Account,XFER,14681008,32538
Mackintosh (Estate Late),Ian,Mar 11 1926 12:00:00:000AM,91,,,SourceDeal,,10831,21174,IA,Mar 11 2016 12:00:00:000AM,275099.12,160798.76000000001,126673.0432,126.94,136,,121.20,UT,Ashburton {RF} Targeted Return Fund B4,XFER,14712269,32607
Mackintosh,Wendy Jean,Aug 16 1939 12:00:00:000AM,78,,,DestinationDeal,,32607,37464,IA,Mar 11 2016 12:00:00:000AM,275099.12,160798.76000000001,126673.0432,126.94,136,,121.20,UT,Ashburton {RF} Targeted Return Fund B4,XFER,14712268,32607
Mackintosh,Wendy Jean,Aug 16 1939 12:00:00:000AM,78,,,DestinationDeal,,32607,37464,IA,Mar 11 2016 12:00:00:000AM,275099.12,114300.3558,0.0,0.0,8089,,,FEED,Ashburton Money Market Fund - Fee Account,XFER,14712270,32607
Railo (Estate Late),Moloto Frans,Jan  4 1956 12:00:00:000AM,61,,,SourceDeal,,7457,17964,IA,Mar 11 2016 12:00:00:000AM,115900.27,115900.27,65156.436800000003,177.88,178,,168.60,UT,Coronation Balanced Defensive Fund P,XFER,14712291,32609
Railo,Nganese Betty,Jun 15 1955 12:00:00:000AM,62,,,DestinationDeal,,32609,38188,IA,Mar 11 2016 12:00:00:000AM,115900.27,115900.27,65156.436800000003,177.88,178,,168.60,UT,Coronation Balanced Defensive Fund P,XFER,14712290,32609
Duiker,Elizabeth,Nov 21 1952 12:00:00:000AM,65,,,SourceDeal,,9144,19514,IA,Mar 22 2016 12:00:00:000AM,424630.59,31860.540000000005,14046.6186,226.81999999999999,69,,,UT,Ashburton {RF} Global Flexible Fund A,XFER,15066225,33027
National Baptist Church, ,,,,,DestinationDeal,,33027,38991,IA,Mar 22 2016 12:00:00:000AM,424630.59,31860.540000000005,14046.6186,226.81999999999999,69,,,UT,Ashburton {RF} Global Flexible Fund A,XFER,15066224,33027
Duiker,Elizabeth,Nov 21 1952 12:00:00:000AM,65,,,SourceDeal,,9144,19514,IA,Mar 22 2016 12:00:00:000AM,424630.59,21181.939999999999,971.77359999999999,2179.7199999999998,107,,,UT,Ashburton {RF} MultiMgr Property Fund B1,XFER,15066229,33027
National Baptist Church, ,,,,,DestinationDeal,,33027,38991,IA,Mar 22 2016 12:00:00:000AM,424630.59,21181.939999999999,971.77359999999999,2179.7199999999998,107,,,UT,Ashburton {RF} MultiMgr Property Fund B1,XFER,15066228,33027
Duiker,Elizabeth,Nov 21 1952 12:00:00:000AM,65,,,SourceDeal,,9144,19514,IA,Mar 22 2016 12:00:00:000AM,424630.59,41905.120000000003,5831.0887000000002,718.64999999999998,121,,,UT,Ashburton {RF} Equity Fund B1,XFER,15066231,33027
National Baptist Church, ,,,,,DestinationDeal,,33027,38991,IA,Mar 22 2016 12:00:00:000AM,424630.59,41905.120000000003,5831.0887000000002,718.64999999999998,121,,,UT,Ashburton {RF} Equity Fund B1,XFER,15066230,33027
Duiker,Elizabeth,Nov 21 1952 12:00:00:000AM,65,,,SourceDeal,,9144,19514,IA,Mar 22 2016 12:00:00:000AM,424630.59,74535.270000000004,73016.530799999993,102.08,124,,,UT,Ashburton SA Income Fund B1,XFER,15066223,33027
National Baptist Church, ,,,,,DestinationDeal,,33027,38991,IA,Mar 22 2016 12:00:00:000AM,424630.59,74535.270000000004,73016.530799999993,102.08,124,,,UT,Ashburton SA Income Fund B1,XFER,15066222,33027
National Baptist Church, ,,,,,DestinationDeal,,33027,38991,IA,Mar 22 2016 12:00:00:000AM,424630.59,49143.309999999998,4933.3738000000003,996.13999999999999,437,,,UT,Ashburton {RF} MultiMgr Bond Fund B1,XFER,15066226,33027
Duiker,Elizabeth,Nov 21 1952 12:00:00:000AM,65,,,SourceDeal,,9144,19514,IA,Mar 22 2016 12:00:00:000AM,424630.59,4401.9014999999999,0.0,0.0,8089,,,FEED,Ashburton Money Market Fund - Fee Account,XFER,15066233,33027
National Baptist Church, ,,,,,DestinationDeal,,33027,38991,IA,Mar 22 2016 12:00:00:000AM,424630.59,4401.9014999999999,0.0,0.0,8089,,,FEED,Ashburton Money Market Fund - Fee Account,XFER,15066232,33027
Duiker,Elizabeth,Nov 21 1952 12:00:00:000AM,65,,,SourceDeal,,25795,19514,IA,Mar 22 2016 12:00:00:000AM,424630.59,66646.800000000003,65288.795599999998,102.08,124,,,UT,Ashburton SA Income Fund B1,XFER,15066246,33028
National Baptist Church, ,,,,,DestinationDeal,,33028,38991,IA,Mar 22 2016 12:00:00:000AM,424630.59,66646.800000000003,65288.795599999998,102.08,124,,,UT,Ashburton SA Income Fund B1,XFER,15066245,33028
National Baptist Church, ,,,,,DestinationDeal,,33028,38991,IA,Mar 22 2016 12:00:00:000AM,424630.59,37462.900000000001,5214.9134999999997,718.38,642,,,UT,Ashburton Equity Fund A1,XFER,15066243,33028
Duiker,Elizabeth,Nov 21 1952 12:00:00:000AM,65,,,SourceDeal,,25795,19514,IA,Mar 22 2016 12:00:00:000AM,424630.59,28460.709999999999,12607.737800000001,225.74000000000001,657,,,UT,Ashburton Global Flexible Fund A1,XFER,15066238,33028
National Baptist Church, ,,,,,DestinationDeal,,33028,38991,IA,Mar 22 2016 12:00:00:000AM,424630.59,28460.709999999999,12607.737800000001,225.74000000000001,657,,,UT,Ashburton Global Flexible Fund A1,XFER,15066237,33028
Duiker,Elizabeth,Nov 21 1952 12:00:00:000AM,65,,,SourceDeal,,25795,19514,IA,Mar 22 2016 12:00:00:000AM,424630.59,18926.68,869.10149999999999,2177.73,673,,,UT,Ashburton Multi Manager Property Fund A1,XFER,15066242,33028
National Baptist Church, ,,,,,DestinationDeal,,33028,38991,IA,Mar 22 2016 12:00:00:000AM,424630.59,18926.68,869.10149999999999,2177.73,673,,,UT,Ashburton Multi Manager Property Fund A1,XFER,15066241,33028
Duiker,Elizabeth,Nov 21 1952 12:00:00:000AM,65,,,SourceDeal,,25795,19514,IA,Mar 22 2016 12:00:00:000AM,424630.59,43916.639999999999,4406.8678,996.54999999999995,694,,,UT,Ashburton Multi Manager Bond Fund A1,XFER,15066240,33028
National Baptist Church, ,,,,,DestinationDeal,,33028,38991,IA,Mar 22 2016 12:00:00:000AM,424630.59,43916.639999999999,4406.8678,996.54999999999995,694,,,UT,Ashburton Multi Manager Bond Fund A1,XFER,15066239,33028
Duiker,Elizabeth,Nov 21 1952 12:00:00:000AM,65,,,SourceDeal,,25795,19514,IA,Mar 22 2016 12:00:00:000AM,424630.59,6188.7740999999996,0.0,0.0,8089,,,FEED,Ashburton Money Market Fund - Fee Account,XFER,15066248,33028
National Baptist Church, ,,,,,DestinationDeal,,33028,38991,IA,Mar 22 2016 12:00:00:000AM,424630.59,6188.7740999999996,0.0,0.0,8089,,,FEED,Ashburton Money Market Fund - Fee Account,XFER,15066247,33028
Kalmia Trading 1001, ,Apr 25 2005 12:00:00:000AM,12,,,SourceDeal,,19711,28633,IA,Mar 22 2016 12:00:00:000AM,2069722.61,2040855.3200000003,176614.8567,1155.54,104,,,UT,Ashburton {RF} MultiMgr Income Fund B1,XFER,15066271,33029
Moniz,Francoise Marie-Antointte,Aug 20 1963 12:00:00:000AM,54,,,DestinationDeal,,33029,39036,IA,Mar 22 2016 12:00:00:000AM,2069722.61,2040855.3200000003,176614.8567,1155.54,104,,,UT,Ashburton {RF} MultiMgr Income Fund B1,XFER,15066270,33029
Kalmia Trading 1001, ,Apr 25 2005 12:00:00:000AM,12,,,SourceDeal,,19711,28633,IA,Mar 22 2016 12:00:00:000AM,2069722.61,28867.287499999999,0.0,0.0,8089,,,FEED,Ashburton Money Market Fund - Fee Account,XFER,15066273,33029
Ngwenya,Phumzile Carol,Nov 24 1975 12:00:00:000AM,42,,,SourceDeal,,13551,13129,IA,Apr  6 2016 12:00:00:000AM,2089838.19,149365.84,65898.633199999997,226.66,69,,,UT,Ashburton {RF} Global Flexible Fund A,XFER,15707448,33527
Ngwenya,Phumzile Carol,Nov 24 1975 12:00:00:000AM,42,,,SourceDeal,,13551,13129,IA,Apr  6 2016 12:00:00:000AM,2089838.19,154727.03,7044.5421999999999,2196.4099999999999,107,,,UT,Ashburton {RF} MultiMgr Property Fund B1,XFER,15707452,33527
Ngwenya,Phumzile Carol,Nov 24 1975 12:00:00:000AM,42,,,SourceDeal,,13551,13129,IA,Apr  6 2016 12:00:00:000AM,2089838.19,192941.26999999999,27368.720600000001,704.97000000000003,121,,,UT,Ashburton {RF} Equity Fund B1,XFER,15707454,33527
Ngwenya,Phumzile Carol,Nov 24 1975 12:00:00:000AM,42,,,SourceDeal,,13551,13129,IA,Apr  6 2016 12:00:00:000AM,2089838.19,351382.59000000003,349634.4143,100.5,124,,,UT,Ashburton SA Income Fund B1,XFER,15707446,33527
Ngwenya,Phumzile Carol,Nov 24 1975 12:00:00:000AM,42,,,SourceDeal,,13551,13129,IA,Apr  6 2016 12:00:00:000AM,2089838.19,353606.46000000002,23431.301599999999,1509.1199999999999,160,,,UT,Coronation Strategic Income Fund P,XFER,15707456,33527
Ngwenya,Phumzile Carol,Nov 24 1975 12:00:00:000AM,42,,,SourceDeal,,13551,13129,IA,Apr  6 2016 12:00:00:000AM,2089838.19,66433.100000000006,553.63549999999998,11999.43,163,,,UT,Coronation Top 20 Fund P,XFER,15707458,33527
Ngwenya,Phumzile Carol,Nov 24 1975 12:00:00:000AM,42,,,SourceDeal,,13551,13129,IA,Apr  6 2016 12:00:00:000AM,2089838.19,127963.49000000001,1583.634,8080.3699999999999,196,,,UT,Foord Equity Fund B2,XFER,15707460,33527
Ngwenya,Phumzile Carol,Nov 24 1975 12:00:00:000AM,42,,,SourceDeal,,13551,13129,IA,Apr  6 2016 12:00:00:000AM,2089838.19,44663.620000000003,14939.6639,298.95999999999998,349,,,UT,Prudential Enhanced SA Property Tracker D,XFER,15707466,33527
Ngwenya,Phumzile Carol,Nov 24 1975 12:00:00:000AM,42,,,SourceDeal,,13551,13129,IA,Apr  6 2016 12:00:00:000AM,2089838.19,462293.26000000001,46287.648399999998,998.74000000000001,437,,,UT,Ashburton {RF} MultiMgr Bond Fund B1,XFER,15707450,33527
Ngwenya,Phumzile Carol,Nov 24 1975 12:00:00:000AM,42,,,SourceDeal,,13551,13129,IA,Apr  6 2016 12:00:00:000AM,2089838.19,150172.56,40511.629000000001,370.69,717,,,UT,Investec Global Strategic Managed Feeder Fund H,XFER,15707462,33527
Ngwenya,Phumzile Carol,Nov 24 1975 12:00:00:000AM,42,,,SourceDeal,,13551,13129,IA,Apr  6 2016 12:00:00:000AM,2089838.19,36288.968800000002,0.0,0.0,8089,,,FEED,Ashburton Money Market Fund - Fee Account,XFER,15707464,33527
Ngwenya,Sethabile Nomfundo,Sep 26 2001 12:00:00:000AM,16,,,DestinationDeal,,33528,33568,IA,Apr  6 2016 12:00:00:000AM,2089838.19,149365.84,65898.633199999997,226.66,69,,,UT,Ashburton {RF} Global Flexible Fund A,XFER,15707447,33528
Ngwenya,Sethabile Nomfundo,Sep 26 2001 12:00:00:000AM,16,,,DestinationDeal,,33528,33568,IA,Apr  6 2016 12:00:00:000AM,2089838.19,154727.03,7044.5421999999999,2196.4099999999999,107,,,UT,Ashburton {RF} MultiMgr Property Fund B1,XFER,15707451,33528
Ngwenya,Sethabile Nomfundo,Sep 26 2001 12:00:00:000AM,16,,,DestinationDeal,,33528,33568,IA,Apr  6 2016 12:00:00:000AM,2089838.19,192941.26999999999,27368.720600000001,704.97000000000003,121,,,UT,Ashburton {RF} Equity Fund B1,XFER,15707453,33528
Ngwenya,Sethabile Nomfundo,Sep 26 2001 12:00:00:000AM,16,,,DestinationDeal,,33528,33568,IA,Apr  6 2016 12:00:00:000AM,2089838.19,351382.59000000003,349634.4143,100.5,124,,,UT,Ashburton SA Income Fund B1,XFER,15707445,33528
Ngwenya,Sethabile Nomfundo,Sep 26 2001 12:00:00:000AM,16,,,DestinationDeal,,33528,33568,IA,Apr  6 2016 12:00:00:000AM,2089838.19,353606.46000000002,23431.301599999999,1509.1199999999999,160,,,UT,Coronation Strategic Income Fund P,XFER,15707455,33528
Ngwenya,Sethabile Nomfundo,Sep 26 2001 12:00:00:000AM,16,,,DestinationDeal,,33528,33568,IA,Apr  6 2016 12:00:00:000AM,2089838.19,66433.100000000006,553.63549999999998,11999.43,163,,,UT,Coronation Top 20 Fund P,XFER,15707457,33528
Ngwenya,Sethabile Nomfundo,Sep 26 2001 12:00:00:000AM,16,,,DestinationDeal,,33528,33568,IA,Apr  6 2016 12:00:00:000AM,2089838.19,127963.49000000001,1583.634,8080.3699999999999,196,,,UT,Foord Equity Fund B2,XFER,15707459,33528
Ngwenya,Sethabile Nomfundo,Sep 26 2001 12:00:00:000AM,16,,,DestinationDeal,,33528,33568,IA,Apr  6 2016 12:00:00:000AM,2089838.19,44663.620000000003,14939.6639,298.95999999999998,349,,,UT,Prudential Enhanced SA Property Tracker D,XFER,15707465,33528
Ngwenya,Sethabile Nomfundo,Sep 26 2001 12:00:00:000AM,16,,,DestinationDeal,,33528,33568,IA,Apr  6 2016 12:00:00:000AM,2089838.19,462293.26000000001,46287.648399999998,998.74000000000001,437,,,UT,Ashburton {RF} MultiMgr Bond Fund B1,XFER,15707449,33528
Ngwenya,Sethabile Nomfundo,Sep 26 2001 12:00:00:000AM,16,,,DestinationDeal,,33528,33568,IA,Apr  6 2016 12:00:00:000AM,2089838.19,150172.56,40511.629000000001,370.69,717,,,UT,Investec Global Strategic Managed Feeder Fund H,XFER,15707461,33528
Ngwenya,Sethabile Nomfundo,Sep 26 2001 12:00:00:000AM,16,,,DestinationDeal,,33528,33568,IA,Apr  6 2016 12:00:00:000AM,2089838.19,36288.968800000002,0.0,0.0,8089,,,FEED,Ashburton Money Market Fund - Fee Account,XFER,15707463,33528
Botha,Anna Thysina Catherina,Apr  2 1969 12:00:00:000AM,48,,,SourceDeal,,11307,21577,IA,May 11 2016 12:00:00:000AM,271389.50,271389.5,211692.27439999999,128.19999999999999,136,,121.86,UT,Ashburton {RF} Targeted Return Fund B4,XFER,17088685,34863
Kennett (Estate Late),Keith,Aug  5 1930 12:00:00:000AM,87,,,SourceDeal,,8194,18636,IA,May 20 2016 12:00:00:000AM,674923.17,61358.129999999997,3434.1017999999999,1786.73,101,,881.99,UT,Ashburton {RF} MultiMgr Equity Fund B1,XFER,17497500,35330
Kennett,Rose Marie,Sep 27 1940 12:00:00:000AM,77,,,DestinationDeal,,35330,18504,IA,May 20 2016 12:00:00:000AM,674923.17,61358.129999999997,3434.1017999999999,1786.73,101,,881.99,UT,Ashburton {RF} MultiMgr Equity Fund B1,XFER,17497499,35330
Kennett (Estate Late),Keith,Aug  5 1930 12:00:00:000AM,87,,,SourceDeal,,8194,18636,IA,May 20 2016 12:00:00:000AM,674923.17,131558.04000000001,11412.5388,1152.75,104,,1064.30,UT,Ashburton {RF} MultiMgr Income Fund B1,XFER,17497502,35330
Kennett,Rose Marie,Sep 27 1940 12:00:00:000AM,77,,,DestinationDeal,,35330,18504,IA,May 20 2016 12:00:00:000AM,674923.17,131558.04000000001,11412.5388,1152.75,104,,1064.30,UT,Ashburton {RF} MultiMgr Income Fund B1,XFER,17497501,35330
Kennett (Estate Late),Keith,Aug  5 1930 12:00:00:000AM,87,,,SourceDeal,,8194,18636,IA,May 20 2016 12:00:00:000AM,674923.17,478088.57000000001,28246.810799999999,1692.54,110,,1128.84,UT,Ashburton {RF} MultiMgr Prud Flex Fund B1,XFER,17497504,35330
Kennett,Rose Marie,Sep 27 1940 12:00:00:000AM,77,,,DestinationDeal,,35330,18504,IA,May 20 2016 12:00:00:000AM,674923.17,478088.57000000001,28246.810799999999,1692.54,110,,1128.84,UT,Ashburton {RF} MultiMgr Prud Flex Fund B1,XFER,17497503,35330
Kennett (Estate Late),Keith,Aug  5 1930 12:00:00:000AM,87,,,SourceDeal,,8194,18636,IA,May 20 2016 12:00:00:000AM,674923.17,1758.6944000000001,0.0,0.0,116,,,CALL,Ashburton Money Market Fund B2,XFER,17497498,35330
Kennett (Estate Late),Keith,Aug  5 1930 12:00:00:000AM,87,,,SourceDeal,,8194,18636,IA,May 20 2016 12:00:00:000AM,674923.17,2159.7399999999998,171.75,1257.49,526,,1137.00,UT,Ashburton {Exp} MM Income ABIL Retention B1,XFER,17497496,35330
Kennett,Rose Marie,Sep 27 1940 12:00:00:000AM,77,,,DestinationDeal,,35330,18504,IA,May 20 2016 12:00:00:000AM,674923.17,2159.7399999999998,171.75,1257.49,526,,1137.00,UT,Ashburton {Exp} MM Income ABIL Retention B1,XFER,17497495,35330
Evershed,Stanley Gordan,Oct 20 1933 12:00:00:000AM,84,,,SourceDeal,,22263,30271,IA,Jun  1 2016 12:00:00:000AM,486781.24,8089.5,3427.174,236.03999999999999,69,,204.95,UT,Ashburton {RF} Global Flexible Fund A,XFER,17909108,35651
Evershed,Lorraine Millicent,Jan 17 1932 12:00:00:000AM,85,,,DestinationDeal,,35651,30617,IA,Jun  1 2016 12:00:00:000AM,486781.24,8089.5,3427.174,236.03999999999999,69,,204.95,UT,Ashburton {RF} Global Flexible Fund A,XFER,17909107,35651
Evershed,Stanley Gordan,Oct 20 1933 12:00:00:000AM,84,,,SourceDeal,,22263,30271,IA,Jun  1 2016 12:00:00:000AM,486781.24,11844.809999999999,539.08150000000001,2197.2199999999998,107,,2115.37,UT,Ashburton {RF} MultiMgr Property Fund B1,XFER,17909112,35651
Evershed,Lorraine Millicent,Jan 17 1932 12:00:00:000AM,85,,,DestinationDeal,,35651,30617,IA,Jun  1 2016 12:00:00:000AM,486781.24,11844.809999999999,539.08150000000001,2197.2199999999998,107,,2115.37,UT,Ashburton {RF} MultiMgr Property Fund B1,XFER,17909111,35651
Evershed,Stanley Gordan,Oct 20 1933 12:00:00:000AM,84,,,SourceDeal,,22263,30271,IA,Jun  1 2016 12:00:00:000AM,486781.24,9768.1900000000005,1325.9203,736.71000000000004,121,,696.88,UT,Ashburton {RF} Equity Fund B1,XFER,17909114,35651
Evershed,Lorraine Millicent,Jan 17 1932 12:00:00:000AM,85,,,DestinationDeal,,35651,30617,IA,Jun  1 2016 12:00:00:000AM,486781.24,9768.1900000000005,1325.9203,736.71000000000004,121,,696.88,UT,Ashburton {RF} Equity Fund B1,XFER,17909113,35651
Evershed,Stanley Gordan,Oct 20 1933 12:00:00:000AM,84,,,SourceDeal,,22263,30271,IA,Jun  1 2016 12:00:00:000AM,486781.24,20115.560000000001,19783.203099999999,101.68000000000001,124,,101.62,UT,Ashburton SA Income Fund B1,XFER,17909106,35651
Evershed,Lorraine Millicent,Jan 17 1932 12:00:00:000AM,85,,,DestinationDeal,,35651,30617,IA,Jun  1 2016 12:00:00:000AM,486781.24,20115.560000000001,19783.203099999999,101.68000000000001,124,,101.62,UT,Ashburton SA Income Fund B1,XFER,17909105,35651
Evershed,Stanley Gordan,Oct 20 1933 12:00:00:000AM,84,,,SourceDeal,,22263,30271,IA,Jun  1 2016 12:00:00:000AM,486781.24,4192.3599999999997,33.004300000000001,12702.48,163,,12694.34,UT,Coronation Top 20 Fund P,XFER,17909116,35651
Evershed,Lorraine Millicent,Jan 17 1932 12:00:00:000AM,85,,,DestinationDeal,,35651,30617,IA,Jun  1 2016 12:00:00:000AM,486781.24,4192.3599999999997,33.004300000000001,12702.48,163,,12694.34,UT,Coronation Top 20 Fund P,XFER,17909115,35651
Evershed,Stanley Gordan,Oct 20 1933 12:00:00:000AM,84,,,SourceDeal,,22263,30271,IA,Jun  1 2016 12:00:00:000AM,486781.24,7833.3400000000001,93.665999999999997,8363.0599999999995,196,,8275.06,UT,Foord Equity Fund B2,XFER,17909118,35651
Evershed,Lorraine Millicent,Jan 17 1932 12:00:00:000AM,85,,,DestinationDeal,,35651,30617,IA,Jun  1 2016 12:00:00:000AM,486781.24,7833.3400000000001,93.665999999999997,8363.0599999999995,196,,8275.06,UT,Foord Equity Fund B2,XFER,17909117,35651
Evershed,Stanley Gordan,Oct 20 1933 12:00:00:000AM,84,,,SourceDeal,,22263,30271,IA,Jun  1 2016 12:00:00:000AM,486781.24,29390.309999999998,2898.7953000000002,1013.88,437,,1039.85,UT,Ashburton {RF} MultiMgr Bond Fund B1,XFER,17909110,35651
Evershed,Lorraine Millicent,Jan 17 1932 12:00:00:000AM,85,,,DestinationDeal,,35651,30617,IA,Jun  1 2016 12:00:00:000AM,486781.24,29390.309999999998,2898.7953000000002,1013.88,437,,1039.85,UT,Ashburton {RF} MultiMgr Bond Fund B1,XFER,17909109,35651
Evershed,Stanley Gordan,Oct 20 1933 12:00:00:000AM,84,,,SourceDeal,,22263,30271,IA,Jun  1 2016 12:00:00:000AM,486781.24,20076.110000000001,1737.8300999999999,1155.24,697,,1150.64,UT,Ashburton Multi Manager Income Fund A1,XFER,17909104,35651
Evershed,Lorraine Millicent,Jan 17 1932 12:00:00:000AM,85,,,DestinationDeal,,35651,30617,IA,Jun  1 2016 12:00:00:000AM,486781.24,20076.110000000001,1737.8300999999999,1155.24,697,,1150.64,UT,Ashburton Multi Manager Income Fund A1,XFER,17909103,35651
Evershed,Stanley Gordan,Oct 20 1933 12:00:00:000AM,84,,,SourceDeal,,22263,30271,IA,Jun  1 2016 12:00:00:000AM,486781.24,8089.619999999999,2082.8056999999999,388.39999999999998,717,,362.45,UT,Investec Global Strategic Managed Feeder Fund H,XFER,17909120,35651
Evershed,Stanley Gordan,Oct 20 1933 12:00:00:000AM,84,,,SourceDeal,,22263,30271,IA,Jun  1 2016 12:00:00:000AM,486781.24,1454.7941000000001,0.0,0.0,8089,,,FEED,Ashburton Money Market Fund - Fee Account,XFER,17909122,35651
Evershed,Lorraine Millicent,Jan 17 1932 12:00:00:000AM,85,,,DestinationDeal,,35651,30617,IA,Jun  1 2016 12:00:00:000AM,486781.24,1454.7941000000001,0.0,0.0,8089,,,FEED,Ashburton Money Market Fund - Fee Account,XFER,17909121,35651
Evershed,Stanley Gordan,Oct 20 1933 12:00:00:000AM,84,,,SourceDeal,,22265,30271,IA,Jun  1 2016 12:00:00:000AM,486781.24,360586.89000000001,31196.685700000002,1155.8499999999999,104,,1144.67,UT,Ashburton {RF} MultiMgr Income Fund B1,XFER,17909125,35652
Evershed,Lorraine Millicent,Jan 17 1932 12:00:00:000AM,85,,,DestinationDeal,,35652,30617,IA,Jun  1 2016 12:00:00:000AM,486781.24,360586.89000000001,31196.685700000002,1155.8499999999999,104,,1144.67,UT,Ashburton {RF} MultiMgr Income Fund B1,XFER,17909124,35652
Evershed,Stanley Gordan,Oct 20 1933 12:00:00:000AM,84,,,SourceDeal,,22265,30271,IA,Jun  1 2016 12:00:00:000AM,486781.24,5339.7539999999999,0.0,0.0,8089,,,FEED,Ashburton Money Market Fund - Fee Account,XFER,17909128,35652
Evershed,Lorraine Millicent,Jan 17 1932 12:00:00:000AM,85,,,DestinationDeal,,35652,30617,IA,Jun  1 2016 12:00:00:000AM,486781.24,5339.7539999999999,0.0,0.0,8089,,,FEED,Ashburton Money Market Fund - Fee Account,XFER,17909126,35652
Meyer,Louisa Petronella,Jan 29 1944 12:00:00:000AM,73,,,SourceDeal,,7696,18188,IA,Jun  3 2016 12:00:00:000AM,367701.48,53151.360000000001,40573.556900000003,131.0,51,,,UT,Ashburton Balanced Fund A,XFER,18208215,35756
Meyer,Louisa Petronella,Jan 29 1944 12:00:00:000AM,73,,,SourceDeal,,7696,18188,IA,Jun  3 2016 12:00:00:000AM,367701.48,42676.300000000003,3685.2503000000002,1158.03,104,,1142.59,UT,Ashburton {RF} MultiMgr Income Fund B1,XFER,17975863,35756
Meyer,Andries Nicolas,Nov 10 1938 12:00:00:000AM,79,,,DestinationDeal,,35756,20747,IA,Jun  3 2016 12:00:00:000AM,292355.48,42676.300000000003,3685.2503000000002,1158.03,104,,1142.59,UT,Ashburton {RF} MultiMgr Income Fund B1,XFER,17975862,35756
Meyer,Andries Nicolas,Nov 10 1938 12:00:00:000AM,79,,,DestinationDeal,,35756,20747,IA,Jun  3 2016 12:00:00:000AM,292355.48,123944.89000000001,7234.0249000000003,1713.3599999999999,110,,1558.66,UT,Ashburton {RF} MultiMgr Prud Flex Fund B1,XFER,17975864,35756
Meyer,Louisa Petronella,Jan 29 1944 12:00:00:000AM,73,,,SourceDeal,,7696,18188,IA,Jun  3 2016 12:00:00:000AM,367701.48,80735.059999999998,5236.0763999999999,1541.9000000000001,160,,1509.88,UT,Coronation Strategic Income Fund P,XFER,17975869,35756
Meyer,Louisa Petronella,Jan 29 1944 12:00:00:000AM,73,,,SourceDeal,,7696,18188,IA,Jun  3 2016 12:00:00:000AM,367701.48,40935.57,22387.513200000001,182.84999999999999,178,,169.76,UT,Coronation Balanced Defensive Fund P,XFER,17975867,35756
Meyer,Andries Nicolas,Nov 10 1938 12:00:00:000AM,79,,,DestinationDeal,,35756,20747,IA,Jun  3 2016 12:00:00:000AM,292355.48,40935.57,22387.513200000001,182.84999999999999,178,,169.76,UT,Coronation Balanced Defensive Fund P,XFER,17975866,35756
Meyer,Louisa Petronella,Jan 29 1944 12:00:00:000AM,73,,,SourceDeal,,7696,18188,IA,Jun  3 2016 12:00:00:000AM,367701.48,22194.639999999999,1917.6123,1157.4100000000001,697,,,UT,Ashburton Multi Manager Income Fund A1,XFER,18208216,35756
Meyer,Louisa Petronella,Jan 29 1944 12:00:00:000AM,73,,,SourceDeal,,7696,18188,IA,Jun  3 2016 12:00:00:000AM,367701.48,4063.6644000000001,0.0,0.0,8089,,,FEED,Ashburton Money Market Fund - Fee Account,XFER,17975871,35756
Meyer,Andries Nicolas,Nov 10 1938 12:00:00:000AM,79,,,DestinationDeal,,35756,20747,IA,Jun  3 2016 12:00:00:000AM,292355.48,4063.6644000000001,0.0,0.0,8089,,,FEED,Ashburton Money Market Fund - Fee Account,XFER,17975870,35756
Venter (Estate Late),Willem,Jul  9 1931 12:00:00:000AM,86,,,SourceDeal,,453,11305,IA,Jun  9 2016 12:00:00:000AM,479340.97,300311.59999999998,25715.7929,1167.8099999999999,104,,1129.41,UT,Ashburton {RF} MultiMgr Income Fund B1,XFER,18174820,36010
Venter,Wilma Mona,Dec 23 1931 12:00:00:000AM,86,,,DestinationDeal,,36010,41442,IA,Jun  9 2016 12:00:00:000AM,479340.97,300311.59999999998,25715.7929,1167.8099999999999,104,,1129.41,UT,Ashburton {RF} MultiMgr Income Fund B1,XFER,18174819,36010
Venter (Estate Late),Willem,Jul  9 1931 12:00:00:000AM,86,,,SourceDeal,,453,11305,IA,Jun  9 2016 12:00:00:000AM,479340.97,159970.57999999999,123864.17230000001,129.15000000000001,136,,115.29,UT,Ashburton {RF} Targeted Return Fund B4,XFER,19408962,36010
Venter,Wilma Mona,Dec 23 1931 12:00:00:000AM,86,,,DestinationDeal,,36010,41442,IA,Jun  9 2016 12:00:00:000AM,479340.97,159970.57999999999,123864.17230000001,129.15000000000001,136,,115.29,UT,Ashburton {RF} Targeted Return Fund B4,XFER,19408963,36010
Venter (Estate Late),Willem,Jul  9 1931 12:00:00:000AM,86,,,SourceDeal,,453,11305,IA,Jun  9 2016 12:00:00:000AM,479340.97,3339.0300000000002,263.96769999999998,1264.9400000000001,526,,1129.05,UT,Ashburton {Exp} MM Income ABIL Retention B1,XFER,18174818,36010
Venter,Wilma Mona,Dec 23 1931 12:00:00:000AM,86,,,DestinationDeal,,36010,41442,IA,Jun  9 2016 12:00:00:000AM,479340.97,3339.0300000000002,263.96769999999998,1264.9400000000001,526,,1129.05,UT,Ashburton {Exp} MM Income ABIL Retention B1,XFER,18174817,36010
Venter (Estate Late),Willem,Jul  9 1931 12:00:00:000AM,86,,,SourceDeal,,453,11305,IA,Jun  9 2016 12:00:00:000AM,479340.97,15719.7585,0.0,0.0,8089,,,FEED,Ashburton Money Market Fund - Fee Account,XFER,18174822,36010
Venter,Wilma Mona,Dec 23 1931 12:00:00:000AM,86,,,DestinationDeal,,36010,41442,IA,Jun  9 2016 12:00:00:000AM,479340.97,15719.7585,0.0,0.0,8089,,,FEED,Ashburton Money Market Fund - Fee Account,XFER,18174821,36010
Marshall (Estate Late),Elmore Hugh,Aug  6 1941 12:00:00:000AM,76,,,SourceDeal,,25541,33142,IA,Jun  9 2016 12:00:00:000AM,52325.35,15397.75,15082.5224,102.09,124,,101.09,UT,Ashburton SA Income Fund B1,XFER,18174871,36013
Marshall,Julia Elizabeth,Jan  2 1948 12:00:00:000AM,69,,,DestinationDeal,,36013,41420,IA,Jun  9 2016 12:00:00:000AM,52325.35,15397.75,15082.5224,102.09,124,,101.09,UT,Ashburton SA Income Fund B1,XFER,18174870,36013
Marshall (Estate Late),Elmore Hugh,Aug  6 1941 12:00:00:000AM,76,,,SourceDeal,,25541,33142,IA,Jun  9 2016 12:00:00:000AM,52325.35,313.95999999999998,0.0,0.0,8089,,,FEED,Ashburton Money Market Fund - Fee Account,XFER,19340878,36013
Marshall,Julia Elizabeth,Jan  2 1948 12:00:00:000AM,69,,,DestinationDeal,,36013,41420,IA,Jun  9 2016 12:00:00:000AM,52325.35,313.95999999999998,0.0,0.0,8089,,,FEED,Ashburton Money Market Fund - Fee Account,XFER,19340895,36013
Marshall (Estate Late),Elmore Hugh,Aug  6 1941 12:00:00:000AM,76,,,SourceDeal,,25542,33142,IA,Jun  9 2016 12:00:00:000AM,52325.35,5423.3999999999996,42.679099999999998,12707.4,163,,12405.32,UT,Coronation Top 20 Fund P,XFER,18174883,36014
Marshall,Julia Elizabeth,Jan  2 1948 12:00:00:000AM,69,,,DestinationDeal,,36014,41420,IA,Jun  9 2016 12:00:00:000AM,52325.35,5423.3999999999996,42.679099999999998,12707.4,163,,12405.32,UT,Coronation Top 20 Fund P,XFER,18174882,36014
Marshall,Julia Elizabeth,Jan  2 1948 12:00:00:000AM,69,,,DestinationDeal,,36014,41420,IA,Jun  9 2016 12:00:00:000AM,52325.35,6922.5499999999993,82.949700000000007,8345.4799999999996,196,,8264.61,UT,Foord Equity Fund B2,XFER,18174884,36014
Marshall (Estate Late),Elmore Hugh,Aug  6 1941 12:00:00:000AM,76,,,SourceDeal,,25542,33142,IA,Jun  9 2016 12:00:00:000AM,52325.35,1113.1099999999999,370.9744,300.05000000000001,349,,285.66,UT,Prudential Enhanced SA Property Tracker D,XFER,18174891,36014
Marshall,Julia Elizabeth,Jan  2 1948 12:00:00:000AM,69,,,DestinationDeal,,36014,41420,IA,Jun  9 2016 12:00:00:000AM,52325.35,1113.1099999999999,370.9744,300.05000000000001,349,,285.66,UT,Prudential Enhanced SA Property Tracker D,XFER,18174890,36014
Marshall (Estate Late),Elmore Hugh,Aug  6 1941 12:00:00:000AM,76,,,SourceDeal,,25542,33142,IA,Jun  9 2016 12:00:00:000AM,52325.35,8777.3199999999997,1205.8087,727.91999999999996,642,,710.33,UT,Ashburton Equity Fund A1,XFER,18174881,36014
Marshall (Estate Late),Elmore Hugh,Aug  6 1941 12:00:00:000AM,76,,,SourceDeal,,25542,33142,IA,Jun  9 2016 12:00:00:000AM,52325.35,4110.5600000000004,1822.3797999999999,225.56,657,,207.99,UT,Ashburton Global Flexible Fund A1,XFER,18174875,36014
Marshall,Julia Elizabeth,Jan  2 1948 12:00:00:000AM,69,,,DestinationDeal,,36014,41420,IA,Jun  9 2016 12:00:00:000AM,52325.35,4110.5600000000004,1822.3797999999999,225.56,657,,207.99,UT,Ashburton Global Flexible Fund A1,XFER,18174874,36014
Marshall (Estate Late),Elmore Hugh,Aug  6 1941 12:00:00:000AM,76,,,SourceDeal,,25542,33142,IA,Jun  9 2016 12:00:00:000AM,52325.35,4019.5300000000002,182.8338,2198.46,673,,2085.91,UT,Ashburton Multi Manager Property Fund A1,XFER,18174879,36014
Marshall,Julia Elizabeth,Jan  2 1948 12:00:00:000AM,69,,,DestinationDeal,,36014,41420,IA,Jun  9 2016 12:00:00:000AM,52325.35,4019.5300000000002,182.8338,2198.46,673,,2085.91,UT,Ashburton Multi Manager Property Fund A1,XFER,18174878,36014
Marshall (Estate Late),Elmore Hugh,Aug  6 1941 12:00:00:000AM,76,,,SourceDeal,,25542,33142,IA,Jun  9 2016 12:00:00:000AM,52325.35,1364.3,132.10239999999999,1032.76,694,,1044.33,UT,Ashburton Multi Manager Bond Fund A1,XFER,18174877,36014
Marshall,Julia Elizabeth,Jan  2 1948 12:00:00:000AM,69,,,DestinationDeal,,36014,41420,IA,Jun  9 2016 12:00:00:000AM,52325.35,1364.3,132.10239999999999,1032.76,694,,1044.33,UT,Ashburton Multi Manager Bond Fund A1,XFER,18174876,36014
Marshall (Estate Late),Elmore Hugh,Aug  6 1941 12:00:00:000AM,76,,,SourceDeal,,25542,33142,IA,Jun  9 2016 12:00:00:000AM,52325.35,4175.0900000000001,1115.3205,374.33999999999997,717,,362.45,UT,Investec Global Strategic Managed Feeder Fund H,XFER,18174887,36014
Marshall,Julia Elizabeth,Jan  2 1948 12:00:00:000AM,69,,,DestinationDeal,,36014,41420,IA,Jun  9 2016 12:00:00:000AM,52325.35,4175.0900000000001,1115.3205,374.33999999999997,717,,362.45,UT,Investec Global Strategic Managed Feeder Fund H,XFER,18174886,36014
Marshall (Estate Late),Elmore Hugh,Aug  6 1941 12:00:00:000AM,76,,,SourceDeal,,25542,33142,IA,Jun  9 2016 12:00:00:000AM,52325.35,707.77999999999997,0.0,0.0,8089,,,FEED,Ashburton Money Market Fund - Fee Account,XFER,19340884,36014
Marshall,Julia Elizabeth,Jan  2 1948 12:00:00:000AM,69,,,DestinationDeal,,36014,41420,IA,Jun  9 2016 12:00:00:000AM,52325.35,707.77999999999997,0.0,0.0,8089,,,FEED,Ashburton Money Market Fund - Fee Account,XFER,19340896,36014
Seethal (Estate Late),Vivian Bennedict,Jul 14 1946 12:00:00:000AM,71,,,SourceDeal,,6702,17296,IA,Jun 24 2016 12:00:00:000AM,108045.34,32198.860000000001,19208.2919,167.63,63,,160.30,UT,Ashburton Defensive Fund A,XFER,18797298,36563
Seethal,Elaine Audrey,Apr 22 1950 12:00:00:000AM,67,,,DestinationDeal,,36563,17295,IA,Jun 24 2016 12:00:00:000AM,108045.34,32198.860000000001,19208.2919,167.63,63,,160.30,UT,Ashburton Defensive Fund A,XFER,18797297,36563
Seethal (Estate Late),Vivian Bennedict,Jul 14 1946 12:00:00:000AM,71,,,SourceDeal,,6702,17296,IA,Jun 24 2016 12:00:00:000AM,108045.34,22132.32,8081.9132,273.85000000000002,86,,247.36,UT,Ashburton Growth Fund A,XFER,18797300,36563
Seethal,Elaine Audrey,Apr 22 1950 12:00:00:000AM,67,,,DestinationDeal,,36563,17295,IA,Jun 24 2016 12:00:00:000AM,108045.34,22132.32,8081.9132,273.85000000000002,86,,247.36,UT,Ashburton Growth Fund A,XFER,18797299,36563
Seethal (Estate Late),Vivian Bennedict,Jul 14 1946 12:00:00:000AM,71,,,SourceDeal,,6702,17296,IA,Jun 24 2016 12:00:00:000AM,108045.34,53714.160000000003,51059.090300000003,105.2,130,,103.82,UT,Ashburton Stable Fund A,XFER,18797302,36563
Sehlabaka,Tsidiso Joseph,Jun 24 1951 12:00:00:000AM,66,,,SourceDeal,,18409,27496,IA,Jul 22 2016 12:00:00:000AM,485014.60,43984.790000000001,19959.516,220.37,69,,,UT,Ashburton {RF} Global Flexible Fund A,XFER,20115831,37503
Tshukudu,John Tlhanudi,Jan 13 1984 12:00:00:000AM,33,,,DestinationDeal,,37503,42845,IA,Jul 22 2016 12:00:00:000AM,485014.60,43984.790000000001,19959.516,220.37,69,,,UT,Ashburton {RF} Global Flexible Fund A,XFER,20115830,37503
Sehlabaka,Tsidiso Joseph,Jun 24 1951 12:00:00:000AM,66,,,SourceDeal,,18409,27496,IA,Jul 22 2016 12:00:00:000AM,485014.60,72762.240000000005,3289.7447000000002,2211.79,107,,,UT,Ashburton {RF} MultiMgr Property Fund B1,XFER,20115835,37503
Tshukudu,John Tlhanudi,Jan 13 1984 12:00:00:000AM,33,,,DestinationDeal,,37503,42845,IA,Jul 22 2016 12:00:00:000AM,485014.60,72762.240000000005,3289.7447000000002,2211.79,107,,,UT,Ashburton {RF} MultiMgr Property Fund B1,XFER,20115834,37503
Sehlabaka,Tsidiso Joseph,Jun 24 1951 12:00:00:000AM,66,,,SourceDeal,,18409,27496,IA,Jul 22 2016 12:00:00:000AM,485014.60,72243.210000000006,9964.1682999999994,725.02999999999997,121,,,UT,Ashburton {RF} Equity Fund B1,XFER,20115837,37503
Tshukudu,John Tlhanudi,Jan 13 1984 12:00:00:000AM,33,,,DestinationDeal,,37503,42845,IA,Jul 22 2016 12:00:00:000AM,485014.60,72243.210000000006,9964.1682999999994,725.02999999999997,121,,,UT,Ashburton {RF} Equity Fund B1,XFER,20115836,37503
Sehlabaka,Tsidiso Joseph,Jun 24 1951 12:00:00:000AM,66,,,SourceDeal,,18409,27496,IA,Jul 22 2016 12:00:00:000AM,485014.60,35795.110000000001,35339.235999999997,101.29000000000001,124,,,UT,Ashburton SA Income Fund B1,XFER,20115829,37503
Tshukudu,John Tlhanudi,Jan 13 1984 12:00:00:000AM,33,,,DestinationDeal,,37503,42845,IA,Jul 22 2016 12:00:00:000AM,485014.60,35795.110000000001,35339.235999999997,101.29000000000001,124,,,UT,Ashburton SA Income Fund B1,XFER,20115828,37503
Sehlabaka,Tsidiso Joseph,Jun 24 1951 12:00:00:000AM,66,,,SourceDeal,,18409,27496,IA,Jul 22 2016 12:00:00:000AM,485014.60,38726.470000000001,299.84820000000002,12915.360000000001,163,,,UT,Coronation Top 20 Fund P,XFER,20115839,37503
Tshukudu,John Tlhanudi,Jan 13 1984 12:00:00:000AM,33,,,DestinationDeal,,37503,42845,IA,Jul 22 2016 12:00:00:000AM,485014.60,38726.470000000001,299.84820000000002,12915.360000000001,163,,,UT,Coronation Top 20 Fund P,XFER,20115838,37503
Tshukudu,John Tlhanudi,Jan 13 1984 12:00:00:000AM,33,,,DestinationDeal,,37503,42845,IA,Jul 22 2016 12:00:00:000AM,485014.60,62121.889999999999,745.20899999999995,8336.1700000000001,196,,,UT,Foord Equity Fund B2,XFER,20115840,37503
Sehlabaka,Tsidiso Joseph,Jun 24 1951 12:00:00:000AM,66,,,SourceDeal,,18409,27496,IA,Jul 22 2016 12:00:00:000AM,485014.60,73410.199999999997,7212.7767000000003,1017.78,437,,,UT,Ashburton {RF} MultiMgr Bond Fund B1,XFER,20115833,37503
Tshukudu,John Tlhanudi,Jan 13 1984 12:00:00:000AM,33,,,DestinationDeal,,37503,42845,IA,Jul 22 2016 12:00:00:000AM,485014.60,73410.199999999997,7212.7767000000003,1017.78,437,,,UT,Ashburton {RF} MultiMgr Bond Fund B1,XFER,20115832,37503
Sehlabaka,Tsidiso Joseph,Jun 24 1951 12:00:00:000AM,66,,,SourceDeal,,18409,27496,IA,Jul 22 2016 12:00:00:000AM,485014.60,35526.900000000001,3083.5039000000002,1152.1600000000001,697,,,UT,Ashburton Multi Manager Income Fund A1,XFER,20115827,37503
Tshukudu,John Tlhanudi,Jan 13 1984 12:00:00:000AM,33,,,DestinationDeal,,37503,42845,IA,Jul 22 2016 12:00:00:000AM,485014.60,35526.900000000001,3083.5039000000002,1152.1600000000001,697,,,UT,Ashburton Multi Manager Income Fund A1,XFER,20115826,37503
Sehlabaka,Tsidiso Joseph,Jun 24 1951 12:00:00:000AM,66,,,SourceDeal,,18409,27496,IA,Jul 22 2016 12:00:00:000AM,485014.60,44070.25,12109.5412,363.93000000000001,717,,,UT,Investec Global Strategic Managed Feeder Fund H,XFER,20115843,37503
Tshukudu,John Tlhanudi,Jan 13 1984 12:00:00:000AM,33,,,DestinationDeal,,37503,42845,IA,Jul 22 2016 12:00:00:000AM,485014.60,44070.25,12109.5412,363.93000000000001,717,,,UT,Investec Global Strategic Managed Feeder Fund H,XFER,20115842,37503
Sehlabaka,Tsidiso Joseph,Jun 24 1951 12:00:00:000AM,66,,,SourceDeal,,18409,27496,IA,Jul 22 2016 12:00:00:000AM,485014.60,6373.5384999999997,0.0,0.0,8089,,,FEED,Ashburton Money Market Fund - Fee Account,XFER,20115845,37503
Tshukudu,John Tlhanudi,Jan 13 1984 12:00:00:000AM,33,,,DestinationDeal,,37503,42845,IA,Jul 22 2016 12:00:00:000AM,485014.60,6373.5384999999997,0.0,0.0,8089,,,FEED,Ashburton Money Market Fund - Fee Account,XFER,20115844,37503
Casteling,Margaret Ann,Aug 27 1954 12:00:00:000AM,63,,,SourceDeal,,244,11098,IA,Jul 22 2016 12:00:00:000AM,425544.59,216445.26999999999,12971.5911,1668.6099999999999,110,,1386.49,UT,Ashburton {RF} MultiMgr Prud Flex Fund B1,XFER,20115874,37507
Casteling,Margaret Ann,Aug 27 1954 12:00:00:000AM,63,,,DestinationDeal,,37507,11098,IA,Jul 22 2016 12:00:00:000AM,425544.59,216445.26999999999,12971.5911,1668.6099999999999,110,,1386.49,UT,Ashburton {RF} MultiMgr Prud Flex Fund B1,XFER,20115873,37507
Casteling,Margaret Ann,Aug 27 1954 12:00:00:000AM,63,,,DestinationDeal,,37507,11098,IA,Jul 22 2016 12:00:00:000AM,425544.59,209099.31999999998,162067.36610000001,129.02000000000001,136,,113.93,UT,Ashburton {RF} Targeted Return Fund B4,XFER,20115875,37507
Matakata (Estate Late),Lundi Sidwell,May 20 1954 12:00:00:000AM,63,,,SourceDeal,,12127,22343,IA,Aug 15 2016 12:00:00:000AM,220592.82,113953.38000000002,5157.8720000000003,2209.3099999999999,107,,2055.97,UT,Ashburton {RF} MultiMgr Property Fund B1,XFER,20919402,38281
Matakata,Sedikolokgo Magdalena Dorkas,Apr 19 1957 12:00:00:000AM,60,,,DestinationDeal,,38281,43539,IA,Aug 15 2016 12:00:00:000AM,220592.82,113953.38000000002,5157.8720000000003,2209.3099999999999,107,,2055.97,UT,Ashburton {RF} MultiMgr Property Fund B1,XFER,20919401,38281
Matakata (Estate Late),Lundi Sidwell,May 20 1954 12:00:00:000AM,63,,,SourceDeal,,12127,22343,IA,Aug 15 2016 12:00:00:000AM,220592.82,104637.64000000001,58375.254500000003,179.25,178,,172.20,UT,Coronation Balanced Defensive Fund P,XFER,20919404,38281
Matakata,Sedikolokgo Magdalena Dorkas,Apr 19 1957 12:00:00:000AM,60,,,DestinationDeal,,38281,43539,IA,Aug 15 2016 12:00:00:000AM,220592.82,104637.64000000001,58375.254500000003,179.25,178,,172.20,UT,Coronation Balanced Defensive Fund P,XFER,20919403,38281
Matakata (Estate Late),Lundi Sidwell,May 20 1954 12:00:00:000AM,63,,,SourceDeal,,12127,22343,IA,Aug 15 2016 12:00:00:000AM,220592.82,2001.7991,0.0,0.0,8089,,,FEED,Ashburton Money Market Fund - Fee Account,XFER,20919406,38281
Matakata,Sedikolokgo Magdalena Dorkas,Apr 19 1957 12:00:00:000AM,60,,,DestinationDeal,,38281,43539,IA,Aug 15 2016 12:00:00:000AM,220592.82,2001.7991,0.0,0.0,8089,,,FEED,Ashburton Money Market Fund - Fee Account,XFER,20919405,38281
Mamadi,Mabu Enos,Nov 28 1978 12:00:00:000AM,39,,,SourceDeal,,29047,35880,IA,Aug 15 2016 12:00:00:000AM,1980781.53,291038.07000000001,285135.75809999998,102.06999999999999,124,,,UT,Ashburton SA Income Fund B1,XFER,20919467,38286
Mamadi and Company SA (Pty) Ltd., ,Jan 13 2016 12:00:00:000AM,1,,,DestinationDeal,,38286,43139,IA,Aug 15 2016 12:00:00:000AM,1980781.53,291038.07000000001,285135.75809999998,102.06999999999999,124,,,UT,Ashburton SA Income Fund B1,XFER,20919466,38286
Mamadi,Mabu Enos,Nov 28 1978 12:00:00:000AM,39,,,SourceDeal,,29047,35880,IA,Aug 15 2016 12:00:00:000AM,1980781.53,703391.58000000007,97191.120999999999,723.72000000000003,642,,,UT,Ashburton Equity Fund A1,XFER,20919465,38286
Mamadi,Mabu Enos,Nov 28 1978 12:00:00:000AM,39,,,SourceDeal,,29047,35880,IA,Aug 15 2016 12:00:00:000AM,1980781.53,363931.15999999997,174313.22760000001,208.78,657,,,UT,Ashburton Global Flexible Fund A1,XFER,20919459,38286
Mamadi and Company SA (Pty) Ltd., ,Jan 13 2016 12:00:00:000AM,1,,,DestinationDeal,,38286,43139,IA,Aug 15 2016 12:00:00:000AM,1980781.53,363931.15999999997,174313.22760000001,208.78,657,,,UT,Ashburton Global Flexible Fund A1,XFER,20919458,38286
Mamadi,Mabu Enos,Nov 28 1978 12:00:00:000AM,39,,,SourceDeal,,29047,35880,IA,Aug 15 2016 12:00:00:000AM,1980781.53,293789.08000000002,13305.002200000001,2208.1100000000001,673,,,UT,Ashburton Multi Manager Property Fund A1,XFER,20919463,38286
Mamadi and Company SA (Pty) Ltd., ,Jan 13 2016 12:00:00:000AM,1,,,DestinationDeal,,38286,43139,IA,Aug 15 2016 12:00:00:000AM,1980781.53,293789.08000000002,13305.002200000001,2208.1100000000001,673,,,UT,Ashburton Multi Manager Property Fund A1,XFER,20919462,38286
Mamadi,Mabu Enos,Nov 28 1978 12:00:00:000AM,39,,,SourceDeal,,29047,35880,IA,Aug 15 2016 12:00:00:000AM,1980781.53,254009.38,24198.052800000001,1049.71,694,,,UT,Ashburton Multi Manager Bond Fund A1,XFER,20919461,38286
Mamadi and Company SA (Pty) Ltd., ,Jan 13 2016 12:00:00:000AM,1,,,DestinationDeal,,38286,43139,IA,Aug 15 2016 12:00:00:000AM,1980781.53,254009.38,24198.052800000001,1049.71,694,,,UT,Ashburton Multi Manager Bond Fund A1,XFER,20919460,38286
Mamadi,Mabu Enos,Nov 28 1978 12:00:00:000AM,39,,,SourceDeal,,29047,35880,IA,Aug 15 2016 12:00:00:000AM,1980781.53,39191.510000000002,37888.158300000003,103.44,787,,,UT,Ashburton Bond Fund A,XFER,20919457,38286
Mamadi and Company SA (Pty) Ltd., ,Jan 13 2016 12:00:00:000AM,1,,,DestinationDeal,,38286,43139,IA,Aug 15 2016 12:00:00:000AM,1980781.53,39191.510000000002,37888.158300000003,103.44,787,,,UT,Ashburton Bond Fund A,XFER,20919456,38286
Mamadi,Mabu Enos,Nov 28 1978 12:00:00:000AM,39,,,SourceDeal,,29047,35880,IA,Aug 15 2016 12:00:00:000AM,1980781.53,35430.746500000001,0.0,0.0,8089,,,FEED,Ashburton Money Market Fund - Fee Account,XFER,20919469,38286
Mamadi and Company SA (Pty) Ltd., ,Jan 13 2016 12:00:00:000AM,1,,,DestinationDeal,,38286,43139,IA,Aug 15 2016 12:00:00:000AM,1980781.53,35430.746500000001,0.0,0.0,8089,,,FEED,Ashburton Money Market Fund - Fee Account,XFER,20919468,38286
Moikanyane (Estate Late),Oupa Israel,May 21 1955 12:00:00:000AM,62,,,SourceDeal,,1832,12671,IA,Aug 19 2016 12:00:00:000AM,312411.19,56889.940000000002,3133.8103999999998,1815.3599999999999,101,,1481.18,UT,Ashburton {RF} MultiMgr Equity Fund B1,XFER,21223798,38567
Moikanyane,Matseko Lona,Feb  1 1963 12:00:00:000AM,54,,,DestinationDeal,,38567,43665,IA,Aug 19 2016 12:00:00:000AM,312411.19,56889.940000000002,3133.8103999999998,1815.3599999999999,101,,1481.18,UT,Ashburton {RF} MultiMgr Equity Fund B1,XFER,21223797,38567
Moikanyane (Estate Late),Oupa Israel,May 21 1955 12:00:00:000AM,62,,,SourceDeal,,1832,12671,IA,Aug 19 2016 12:00:00:000AM,312411.19,112566.03,5103.7161999999998,2205.5700000000002,107,,1524.20,UT,Ashburton {RF} MultiMgr Property Fund B1,XFER,21223800,38567
Moikanyane,Matseko Lona,Feb  1 1963 12:00:00:000AM,54,,,DestinationDeal,,38567,43665,IA,Aug 19 2016 12:00:00:000AM,312411.19,112566.03,5103.7161999999998,2205.5700000000002,107,,1524.20,UT,Ashburton {RF} MultiMgr Property Fund B1,XFER,21223799,38567
Moikanyane (Estate Late),Oupa Israel,May 21 1955 12:00:00:000AM,62,,,SourceDeal,,1832,12671,IA,Aug 19 2016 12:00:00:000AM,312411.19,142955.22,8533.4683000000005,1675.23,110,,1395.86,UT,Ashburton {RF} MultiMgr Prud Flex Fund B1,XFER,21223802,38567
Moikanyane,Matseko Lona,Feb  1 1963 12:00:00:000AM,54,,,DestinationDeal,,38567,43665,IA,Aug 19 2016 12:00:00:000AM,312411.19,142955.22,8533.4683000000005,1675.23,110,,1395.86,UT,Ashburton {RF} MultiMgr Prud Flex Fund B1,XFER,21223801,38567
Mackintosh (Estate Late),Ian,Mar 11 1926 12:00:00:000AM,91,,,SourceDeal,,10831,21174,IA,Mar 11 2016 12:00:00:000AM,275099.12,114300.3558,0.0,0.0,8089,,,FEED,Ashburton Money Market Fund - Fee Account,XFER,14712271,32607
Duiker,Elizabeth,Nov 21 1952 12:00:00:000AM,65,,,SourceDeal,,9144,19514,IA,Mar 22 2016 12:00:00:000AM,424630.59,49143.309999999998,4933.3738000000003,996.13999999999999,437,,,UT,Ashburton {RF} MultiMgr Bond Fund B1,XFER,15066227,33027
Moniz,Francoise Marie-Antointte,Aug 20 1963 12:00:00:000AM,54,,,DestinationDeal,,33029,39036,IA,Mar 22 2016 12:00:00:000AM,2069722.61,28867.287499999999,0.0,0.0,8089,,,FEED,Ashburton Money Market Fund - Fee Account,XFER,15066272,33029
Botha,Christoffel Theodoris,Jun  2 1994 12:00:00:000AM,23,,,DestinationDeal,,34863,40345,IA,May 11 2016 12:00:00:000AM,271389.50,271389.5,211692.27439999999,128.19999999999999,136,,121.86,UT,Ashburton {RF} Targeted Return Fund B4,XFER,17088684,34863
Evershed,Lorraine Millicent,Jan 17 1932 12:00:00:000AM,85,,,DestinationDeal,,35651,30617,IA,Jun  1 2016 12:00:00:000AM,486781.24,8089.619999999999,2082.8056999999999,388.39999999999998,717,,362.45,UT,Investec Global Strategic Managed Feeder Fund H,XFER,17909119,35651
Meyer,Louisa Petronella,Jan 29 1944 12:00:00:000AM,73,,,SourceDeal,,7696,18188,IA,Jun  3 2016 12:00:00:000AM,367701.48,123944.89000000001,7234.0249000000003,1713.3599999999999,110,,1558.66,UT,Ashburton {RF} MultiMgr Prud Flex Fund B1,XFER,17975865,35756
Marshall (Estate Late),Elmore Hugh,Aug  6 1941 12:00:00:000AM,76,,,SourceDeal,,25542,33142,IA,Jun  9 2016 12:00:00:000AM,52325.35,6922.5499999999993,82.949700000000007,8345.4799999999996,196,,8264.61,UT,Foord Equity Fund B2,XFER,18174885,36014
Marshall,Julia Elizabeth,Jan  2 1948 12:00:00:000AM,69,,,DestinationDeal,,36014,41420,IA,Jun  9 2016 12:00:00:000AM,52325.35,8777.3199999999997,1205.8087,727.91999999999996,642,,710.33,UT,Ashburton Equity Fund A1,XFER,18174880,36014
Seethal,Elaine Audrey,Apr 22 1950 12:00:00:000AM,67,,,DestinationDeal,,36563,17295,IA,Jun 24 2016 12:00:00:000AM,108045.34,53714.160000000003,51059.090300000003,105.2,130,,103.82,UT,Ashburton Stable Fund A,XFER,18797301,36563
Sehlabaka,Tsidiso Joseph,Jun 24 1951 12:00:00:000AM,66,,,SourceDeal,,18409,27496,IA,Jul 22 2016 12:00:00:000AM,485014.60,62121.889999999999,745.20899999999995,8336.1700000000001,196,,,UT,Foord Equity Fund B2,XFER,20115841,37503
Casteling,Margaret Ann,Aug 27 1954 12:00:00:000AM,63,,,SourceDeal,,244,11098,IA,Jul 22 2016 12:00:00:000AM,425544.59,209099.31999999998,162067.36610000001,129.02000000000001,136,,113.93,UT,Ashburton {RF} Targeted Return Fund B4,XFER,20115876,37507
Mamadi and Company SA (Pty) Ltd., ,Jan 13 2016 12:00:00:000AM,1,,,DestinationDeal,,38286,43139,IA,Aug 15 2016 12:00:00:000AM,1980781.53,703391.58000000007,97191.120999999999,723.72000000000003,642,,,UT,Ashburton Equity Fund A1,XFER,20919464,38286
Grobbelaar,Cornelia Hendrina Aletta,Mar 14 1933 12:00:00:000AM,84,,,DestinationDeal,,32537,22551,IA,Mar 10 2016 12:00:00:000AM,204143.76,18632.669999999998,2660.5936999999999,700.32000000000005,642,,707.12,UT,Ashburton Equity Fund A1,XFER,14681000,32537
Duiker,Elizabeth,Nov 21 1952 12:00:00:000AM,65,,,SourceDeal,,25795,19514,IA,Mar 22 2016 12:00:00:000AM,424630.59,37462.900000000001,5214.9134999999997,718.38,642,,,UT,Ashburton Equity Fund A1,XFER,15066244,33028
Kennett,Rose Marie,Sep 27 1940 12:00:00:000AM,77,,,DestinationDeal,,35330,18504,IA,May 20 2016 12:00:00:000AM,674923.17,1758.6944000000001,0.0,0.0,116,,,CALL,Ashburton Money Market Fund B2,XFER,17497497,35330
Meyer,Andries Nicolas,Nov 10 1938 12:00:00:000AM,79,,,DestinationDeal,,35756,20747,IA,Jun  3 2016 12:00:00:000AM,292355.48,80735.059999999998,5236.0763999999999,1541.9000000000001,160,,1509.88,UT,Coronation Strategic Income Fund P,XFER,17975868,35756
